<?xml version="1.0" encoding="UTF-8" ?>
<!DOCTYPE svg PUBLIC "-//W3C//DTD SVG 1.1//EN" "http://www.w3.org/Graphics/SVG/1.1/DTD/svg11.dtd">
<svg width="48pt" height="48pt" viewBox="0 0 48 48" version="1.1" xmlns="http://www.w3.org/2000/svg">
<g id="#76aee1ff">
<path fill="#76aee1" opacity="1.00" d=" M 1.94 5.98 C 1.54 4.12 2.92 1.87 4.95 2.00 C 17.63 2.07 30.32 1.85 42.99 2.12 C 46.12 3.53 44.76 7.53 44.91 10.20 C 31.01 10.01 17.09 9.97 3.18 10.19 L 3.04 10.97 C 2.96 21.64 3.00 32.31 3.03 42.97 C 8.23 42.98 13.43 43.08 18.63 42.90 C 17.85 32.29 18.51 21.63 18.30 11.00 L 18.74 10.99 C 18.88 21.20 18.27 31.42 18.99 41.60 C 19.08 42.81 19.38 43.98 19.63 45.16 L 19.67 45.71 C 19.33 45.81 18.64 46.03 18.30 46.13 C 18.22 45.68 18.06 44.79 17.98 44.34 C 12.70 44.26 7.40 44.63 2.15 44.00 C 2.01 31.33 2.33 18.64 1.94 5.98 M 4.60 2.96 L 4.42 4.29 C 17.03 4.52 29.68 4.67 42.27 4.24 L 42.61 3.01 C 29.95 2.70 17.26 2.75 4.60 2.96 Z" />
</g>
<g id="#a5cdeeff">
<path fill="#a5cdee" opacity="1.00" d=" M 4.60 2.96 C 17.26 2.75 29.95 2.70 42.61 3.01 L 42.27 4.24 C 29.68 4.67 17.03 4.52 4.42 4.29 L 4.60 2.96 Z" />
</g>
<g id="#78a2c6f9">
<path fill="#78a2c6" opacity="0.98" d=" M 3.18 10.19 C 17.09 9.97 31.01 10.01 44.91 10.20 C 44.94 13.33 44.85 16.47 44.97 19.60 L 44.01 19.14 L 43.95 18.01 C 43.92 15.68 43.99 13.34 43.90 11.01 C 35.51 10.91 27.12 10.95 18.74 10.99 L 18.30 11.00 C 13.22 10.92 8.13 10.97 3.04 10.97 L 3.18 10.19 Z" />
</g>
<g id="#ffffffff">
<path fill="#ffffff" opacity="1.00" d=" M 3.04 10.97 C 8.13 10.97 13.22 10.92 18.30 11.00 C 18.51 21.63 17.85 32.29 18.63 42.90 C 13.43 43.08 8.23 42.98 3.03 42.97 C 3.00 32.31 2.96 21.64 3.04 10.97 M 5.03 14.03 C 5.02 14.51 4.99 15.47 4.97 15.95 C 8.65 16.02 12.33 16.06 16.00 15.92 C 16.00 15.46 16.00 14.54 16.00 14.08 C 12.35 13.90 8.69 14.00 5.03 14.03 M 4.98 19.05 C 4.99 19.53 5.00 20.48 5.01 20.96 C 8.66 21.04 12.30 21.03 15.95 20.95 C 15.96 20.48 15.97 19.53 15.98 19.06 C 12.32 18.95 8.65 18.98 4.98 19.05 M 5.00 24.05 C 5.00 24.52 5.00 25.48 5.00 25.96 C 8.66 26.02 12.33 26.08 15.98 25.93 C 15.98 25.46 15.98 24.53 15.98 24.07 C 12.32 23.93 8.66 23.99 5.00 24.05 M 5.03 29.02 C 5.01 29.50 4.98 30.47 4.97 30.96 C 8.64 31.03 12.31 31.05 15.98 30.94 C 15.98 30.47 15.98 29.53 15.98 29.07 C 12.33 28.93 8.68 29.01 5.03 29.02 Z" />
<path fill="#ffffff" opacity="1.00" d=" M 18.74 10.99 C 27.12 10.95 35.51 10.91 43.90 11.01 C 43.99 13.34 43.92 15.68 43.95 18.01 C 42.05 16.66 40.85 18.14 39.63 19.53 C 37.63 21.10 35.87 22.94 34.33 24.95 C 29.86 28.94 25.77 33.33 21.53 37.56 C 20.42 38.72 19.84 40.26 18.99 41.60 C 18.27 31.42 18.88 21.20 18.74 10.99 Z" />
<path fill="#ffffff" opacity="1.00" d=" M 38.74 29.86 C 40.66 28.37 42.40 26.67 43.89 24.75 C 43.98 30.83 43.96 36.92 43.91 43.00 C 37.78 43.05 31.65 43.15 25.53 42.93 L 26.36 42.09 C 30.47 38.00 34.43 33.74 38.74 29.86 Z" />
</g>
<g id="#b2c1cdff">
<path fill="#b2c1cd" opacity="1.00" d=" M 5.03 14.03 C 8.69 14.00 12.35 13.90 16.00 14.08 C 16.00 14.54 16.00 15.46 16.00 15.92 C 12.33 16.06 8.65 16.02 4.97 15.95 C 4.99 15.47 5.02 14.51 5.03 14.03 Z" />
<path fill="#b2c1cd" opacity="1.00" d=" M 4.98 19.05 C 8.65 18.98 12.32 18.95 15.98 19.06 C 15.97 19.53 15.96 20.48 15.95 20.95 C 12.30 21.03 8.66 21.04 5.01 20.96 C 5.00 20.48 4.99 19.53 4.98 19.05 Z" />
<path fill="#b2c1cd" opacity="1.00" d=" M 5.00 24.05 C 8.66 23.99 12.32 23.93 15.98 24.07 C 15.98 24.53 15.98 25.46 15.98 25.93 C 12.33 26.08 8.66 26.02 5.00 25.96 C 5.00 25.48 5.00 24.52 5.00 24.05 Z" />
<path fill="#b2c1cd" opacity="1.00" d=" M 5.03 29.02 C 8.68 29.01 12.33 28.93 15.98 29.07 C 15.98 29.53 15.98 30.47 15.98 30.94 C 12.31 31.05 8.64 31.03 4.97 30.96 C 4.98 30.47 5.01 29.50 5.03 29.02 Z" />
</g>
<g id="#e27b7bff">
<path fill="#e27b7b" opacity="1.00" d=" M 39.63 19.53 C 40.85 18.14 42.05 16.66 43.95 18.01 L 44.01 19.14 C 43.00 19.89 41.96 20.61 40.92 21.31 C 40.60 20.87 39.95 19.98 39.63 19.53 Z" />
</g>
<g id="#d1d2d3ff">
<path fill="#d1d2d3" opacity="1.00" d=" M 34.33 24.95 C 35.87 22.94 37.63 21.10 39.63 19.53 C 39.95 19.98 40.60 20.87 40.92 21.31 C 41.75 22.40 42.66 23.43 43.87 24.10 L 43.89 24.75 C 42.40 26.67 40.66 28.37 38.74 29.86 C 38.34 29.31 37.53 28.20 37.13 27.65 C 36.34 26.60 35.34 25.76 34.33 24.95 Z" />
</g>
<g id="#c54849ef">
<path fill="#c54849" opacity="0.94" d=" M 40.92 21.31 C 41.96 20.61 43.00 19.89 44.01 19.14 L 44.97 19.60 C 46.19 20.26 46.31 22.29 45.02 23.00 C 44.73 23.27 44.16 23.82 43.87 24.10 C 42.66 23.43 41.75 22.40 40.92 21.31 Z" />
</g>
<g id="#5e9bd1ef">
<path fill="#5e9bd1" opacity="0.94" d=" M 43.87 24.10 C 44.16 23.82 44.73 23.27 45.02 23.00 C 44.85 29.97 44.97 36.95 44.96 43.92 C 37.77 44.71 30.52 44.33 23.31 44.30 C 23.86 43.96 24.97 43.27 25.53 42.93 C 31.65 43.15 37.78 43.05 43.91 43.00 C 43.96 36.92 43.98 30.83 43.89 24.75 L 43.87 24.10 Z" />
</g>
<g id="#edd65aff">
<path fill="#edd65a" opacity="1.00" d=" M 34.33 24.95 C 35.34 25.76 36.34 26.60 37.13 27.65 C 36.69 27.61 35.81 27.53 35.37 27.50 C 31.39 31.45 26.78 34.93 23.57 39.57 C 22.89 38.90 22.20 38.23 21.53 37.56 C 25.77 33.33 29.86 28.94 34.33 24.95 Z" />
</g>
<g id="#e6c103ff">
<path fill="#e6c103" opacity="1.00" d=" M 35.37 27.50 C 35.81 27.53 36.69 27.61 37.13 27.65 C 37.53 28.20 38.34 29.31 38.74 29.86 C 34.43 33.74 30.47 38.00 26.36 42.09 C 25.43 41.25 24.50 40.41 23.57 39.57 C 26.78 34.93 31.39 31.45 35.37 27.50 Z" />
</g>
<g id="#e7c1a8ff">
<path fill="#e7c1a8" opacity="1.00" d=" M 18.99 41.60 C 19.84 40.26 20.42 38.72 21.53 37.56 C 22.20 38.23 22.89 38.90 23.57 39.57 C 24.50 40.41 25.43 41.25 26.36 42.09 L 25.53 42.93 C 24.97 43.27 23.86 43.96 23.31 44.30 C 21.89 44.34 21.16 46.23 19.63 45.16 C 19.38 43.98 19.08 42.81 18.99 41.60 Z" />
</g>
</svg>
